module gitlab.com/tigorlazuardi/seraph-kube

go 1.14

require (
	github.com/fsnotify/fsnotify v1.4.9 // indirect
	github.com/mitchellh/mapstructure v1.3.3 // indirect
	github.com/pelletier/go-toml v1.8.0 // indirect
	github.com/spf13/afero v1.3.2 // indirect
	github.com/spf13/cast v1.3.1 // indirect
	github.com/spf13/cobra v1.0.0
	github.com/spf13/jwalterweatherman v1.1.0 // indirect
	github.com/spf13/pflag v1.0.5 // indirect
	github.com/spf13/viper v1.7.0
	golang.org/x/sys v0.0.0-20200724161237-0e2f3a69832c // indirect
	golang.org/x/text v0.3.3 // indirect
	gopkg.in/ini.v1 v1.57.0 // indirect
)
